Inferring Home Locations for Social Media Users • homelocator
…
Enrich variables from timestamp

Add additional needed varialbes derived from the timestamp column. These are often used/needed as intermediate variables in home location algorithms, such as year, month, day, day of the week and hour of the day, etc.

enrich_timestamp(df_nested, timestamp = "created_at")
#> 🛠 Enriching variables from timestamp...
#> 
#> ✅ Finish enriching! New added variables: year, month, day, wday, hour, ymd.
#> ⌛ Enriching time: 0.05 mins
#> 
#> # A tibble: 3,000 x 2
#>    u_id     data                
#>    <chr>    <list>              
#>  1 26295661 <tibble [406 × 8]>  
#>  2 69400017 <tibble [79 × 8]>   
#>  3 16294855 <tibble [5,889 × 8]>
#>  4 40275983 <tibble [67 × 8]>   
#>  5 91759535 <tibble [1,823 × 8]>
#>  6 81298067 <tibble [191 × 8]>  
#>  7 45267153 <tibble [57 × 8]>   
#>  8 37588593 <tibble [4,475 × 8]>
#>  9 81235774 <tibble [335 × 8]>  
#> 10 67861300 <tibble [29 × 8]>   
#> # … with 2,990 more rows
…
